{
	"process_id" : 4125,
	"version" : "2018.3.1f1",
	"app_path" : "/Applications/Unity/Hub/Editor/2018.3.1f1/Unity.app",
	"app_contents_path" : "/Applications/Unity/Hub/Editor/2018.3.1f1/Unity.app/Contents"
}